<svg width="14" height="16" viewBox="0 0 14 16" fill="none" xmlns="http://www.w3.org/2000/svg">
<line y1="-0.5" x2="18.8725" y2="-0.5" transform="matrix(0.647777 -0.76183 0.770216 0.637783 1.00024 15.5396)" stroke="black"/>
<line y1="-0.5" x2="18.8724" y2="-0.5" transform="matrix(-0.647775 -0.761832 0.770215 -0.637784 13.2251 15.1145)" stroke="black"/>
</svg>
